{
    "waking_up":"*Baille* :yawning_face:\nJe suis réveillé, me voilà ! :blush:",
    "shutting_down":"Oups, je dois vous laisser ...\nAu revoir les gens ! :wave:",
    "default_answer":"Ceci est mon message par défaut ! (en vrai je sais pas quoi te répondre mon coco :sweat_smile: )",
    "commands_multiple_matches":"Oups, je ne reconnais pas la commande que tu me demandes, tu parles de :\n",
    "commands_shortcuts":{
        "all_polls"     :"sondages",
        "day_poll"      :"sondage jours",
        "game_poll"     :"sondage jeux",
        "roles_poll"    :"sondage roles",
        "time_poll"     :"sondage heures"
    },
    "command_executed":{
        "before"    :"Commande ",
        "after"     :" exécutée !"
    }
    
}