{
    "items": [
        {
            "text" :"Gartic Phone",
            "emoji":"☎️"
        },
        {
            "text" :"Skribbl.io",
            "emoji":"✏️"
        },
        {
            "text" :"Among Us",
            "emoji":"🕵️"
        },
        {
            "text" :"Codenames",
            "emoji":"💳"
        }
    ],
    "options":{
        "color":"#bdc496"
    }
    
}