{
    "fr":{
        "title":"On se capte quel jour ? :grin:",
        "description":"Mettez des réactions pour voter ! :yum:\n",
        "command_description":"Créer un sondage de jour"
    },
    "en-gb":{
        "title":"What day shall we play? :grin:",
        "description":"Put reactions to vote ! :grin:\n",
        "command_description":"Create a day poll"
    },
    "en-us":{
        "title":"What day shall we play? :grin:",
        "description":"Put reactions to vote ! :grin:\n",
        "command_description":"Create a day poll"
    }
}